Reproducible Data Analysis using R
…
geo_data <- inner_join(ua_points, data, by = "ua_no")
geo_data

## Simple feature collection with 2777 features and 12 fields
## geometry type:  POINT
## dimension:      XY
## bbox:           xmin: 69.62931 ymin: 8.183286 xmax: 95.35576 ymax: 34.08367
## CRS:            NA
## # A tibble: 2,777 x 13
##    ua_no ua.x  country `Full Address`                  geometry ua.y   year
##    <dbl> <chr> <chr>   <chr>                            <POINT> <chr> <dbl>
##  1     1 Grea~ , India Greater Mumba~        (72.8345 18.94036) Grea~  1961
##  2     1 Grea~ , India Greater Mumba~        (72.8345 18.94036) Grea~  1971
##  3     1 Grea~ , India Greater Mumba~        (72.8345 18.94036) Grea~  1981
##  4     1 Grea~ , India Greater Mumba~        (72.8345 18.94036) Grea~  1991
##  5     1 Grea~ , India Greater Mumba~        (72.8345 18.94036) Grea~  2001
##  6     1 Grea~ , India Greater Mumba~        (72.8345 18.94036) Grea~  2011
##  7     2 Delhi , India Delhi   , Ind~       (77.10249 28.70406) Delh~  1961
##  8     2 Delhi , India Delhi   , Ind~       (77.10249 28.70406) Delh~  1971
##  9     2 Delhi , India Delhi   , Ind~       (77.10249 28.70406) Delh~  1981
## 10     2 Delhi , India Delhi   , Ind~       (77.10249 28.70406) Delh~  1991
## # ... with 2,767 more rows, and 6 more variables: area <dbl>, population <dbl>,
## #   pop_change <dbl>, pop_change_percent <dbl>, pop_male <dbl>,
## #   pop_female <dbl>
…
