Reproducible Data Analysis using R
…
sex_ratio_change <- data %>% 
  mutate(sex_ratio = pop_male/pop_female) %>% 
  group_by(ua_no) %>% 
  do(lm = lm(sex_ratio ~ year, data = .)) %>% 
  mutate(sex_ratio_slope = summary(lm)$coeff[2]) %>%
  select(ua_no, sex_ratio_slope)

data %>% 
  inner_join(sex_ratio_change, by = "ua_no") %>% 
  arrange(desc(sex_ratio_slope)) %>% 
  mutate(sex_ratio = pop_male / pop_female) %>% 
  select(ua, year, sex_ratio_slope, population, sex_ratio)

## # A tibble: 2,777 x 5
##    ua          year sex_ratio_slope population sex_ratio
##    <chr>      <int>           <dbl>      <int>     <dbl>
##  1 Vapi ^      1961         0.00753      11212      1.02
##  2 Vapi ^      1971         0.00753      13888      1.12
##  3 Vapi ^      1981         0.00753      19620      1.17
##  4 Vapi ^      1991         0.00753      31533      1.17
##  5 Vapi ^      2001         0.00753     112177      1.44
##  6 Vapi ^      2011         0.00753     163630      1.35
##  7 Surat U.A.  1961         0.00504     317519      1.09
##  8 Surat U.A.  1971         0.00504     493001      1.13
##  9 Surat U.A.  1981         0.00504     930246      1.19
## 10 Surat U.A.  1991         0.00504    1514545      1.19
## # ... with 2,767 more rows
…
Spread and gather: long to wide and vice versa.

pop_years <- data %>% 
  select(ua, year, population) %>% 
  spread(year, population) 

print(pop_years)

## # A tibble: 468 x 7
##    ua               `1961`  `1971`  `1981`  `1991`  `2001`  `2011`
##    <chr>             <int>   <int>   <int>   <int>   <int>   <int>
##  1 Abohar            46863   58925   86334  107163  124339  145302
##  2 Achalpur [19]     54028   66451   81186   96229  107316  112311
##  3 Adilabad U.A.     20970   30368   53482   84255  129403  139383
##  4 Adoni U.A.        69951   85311  108939  136182  162458  184625
##  5 Agartala #        54878  100264  132186  198320  269492  400004
##  6 Agra U.A.        508680  634622  747318  961420 1374493 1760285
##  7 Ahmadabad U.A.  1265081 1871006 2733952 3631233 4912912 6357693
##  8 Ahmadnagar U.A.  119020  148405  181210  222088  355169  379845
##  9 Aizawl            14257   31740   74493  155240  228280  293416
## 10 Ajmer U.A.       231240  264291  375593  402700  490520  551101
## # ... with 458 more rows
…
